{
  "development": {
    "username": "root",
    "password": "anticuch0",
    "database": "parsermobil",
    "host": "127.0.0.1",
    "dialect": "mysql"
  },
  "test": {
    "username": "root",
    "password": null,
    "database": "database_test",
    "host": "127.0.0.1",
    "dialect": "mysql"
  },
  "production": {
    "username": "dbmasteruser",
    "password": "8Vo,p_Raa5ARms&IIPKSu%SPq:&CK:jI",
    "database": "dbmaster",
    "host": "ls-c786ca0d0f63a1ca8ac5a23aef78456fcad5b57b.chsuoqkjdas6.us-east-1.rds.amazonaws.com",
    "dialect": "mysql"
  }
}
